{
  "name": "Analgine",
  "pharm": "Darnitsja",
  "group":"Analgetic",
  "nameOfAnalogs":[
    "Baralgin","Baralgetas","Dexalgin"
  ],
  "versions":[
    "Solution","Tablets"
  ],
  "certificate":{
    "numberOfRegistretion": 1223467,
    "registrationDate":"12/04/2017",
    "expirationDate":"11/04/2022",
    "nameOfOrganisation":"MOZ"
  },
  "dosage":{
    "dose":0.5,
    "frequency": "twice"
  }
}